{
    "variants": {
        "axis=y":  { "model": "nexusraces:crystal_log_sapphire" },
        "axis=z":   { "model": "nexusraces:crystal_log_sapphire", "x": 90 },
        "axis=x":   { "model": "nexusraces:crystal_log_sapphire", "x": 90, "y": 90 },
        "axis=none": { "model": "nexusraces:crystal_log_sapphire_bark" }
    }
}